Tesis sobre las mezclas asfálticas.
…
datos_obj1_raw |> 
  count(mezcla_n) |> 
  mutate(pct = n / sum(n) * 100)

## # A tibble: 24 × 3
##    mezcla_n     n   pct
##       <dbl> <int> <dbl>
##  1        1    10  4.17
##  2        2    10  4.17
##  3        3    10  4.17
##  4        4    10  4.17
##  5        5    10  4.17
##  6        6    10  4.17
##  7        7    10  4.17
##  8        8    10  4.17
##  9        9    10  4.17
## 10       10    10  4.17
## # ℹ 14 more rows

datos_obj1_raw |> 
  count(bloque_n) |> 
  mutate(pct = n / sum(n) * 100)

## # A tibble: 48 × 3
##    bloque_n     n   pct
##    <chr>    <int> <dbl>
##  1 10A          5  2.08
##  2 10B          5  2.08
##  3 11A          5  2.08
##  4 11B          5  2.08
##  5 12A          5  2.08
##  6 12B          5  2.08
##  7 13A          5  2.08
##  8 13B          5  2.08
##  9 14A          5  2.08
## 10 14B          5  2.08
## # ℹ 38 more rows
…
datos_obj2_raw |> 
  count(mezcla_n) |> 
  mutate(pct = n / sum(n) * 100)

## # A tibble: 24 × 3
##    mezcla_n     n   pct
##       <dbl> <int> <dbl>
##  1        1    10  4.17
##  2        2    10  4.17
##  3        3    10  4.17
##  4        4    10  4.17
##  5        5    10  4.17
##  6        6    10  4.17
##  7        7    10  4.17
##  8        8    10  4.17
##  9        9    10  4.17
## 10       10    10  4.17
## # ℹ 14 more rows

datos_obj2_raw |> 
  count(bloque_n) |> 
  mutate(pct = n / sum(n) * 100)

## # A tibble: 48 × 3
##    bloque_n     n   pct
##    <chr>    <int> <dbl>
##  1 10A          5  2.08
##  2 10B          5  2.08
##  3 11A          5  2.08
##  4 11B          5  2.08
##  5 12A          5  2.08
##  6 12B          5  2.08
##  7 13A          5  2.08
##  8 13B          5  2.08
##  9 14A          5  2.08
## 10 14B          5  2.08
## # ℹ 38 more rows
…
